\relax 
\providecommand\zref@newlabel[2]{}
\providecommand*\new@tpo@label[2]{}
\providecommand\hyper@newdestlabel[2]{}
\providecommand\HyperFirstAtBeginDocument{\AtBeginDocument}
\HyperFirstAtBeginDocument{\ifx\hyper@anchor\@undefined
\global\let\oldnewlabel\newlabel
\gdef\newlabel#1#2{\newlabelxx{#1}#2}
\gdef\newlabelxx#1#2#3#4#5#6{\oldnewlabel{#1}{{#2}{#3}}}
\AtEndDocument{\ifx\hyper@anchor\@undefined
\let\newlabel\oldnewlabel
\fi}
\fi}
\global\let\hyper@last\relax 
\gdef\HyperFirstAtBeginDocument#1{#1}
\providecommand*\HyPL@Entry[1]{}
\abx@aux@refcontext{none/global//global/global}
\HyPL@Entry{0<</S/r>>}
\providecommand \oddpage@label [2]{}
\@writefile{toc}{\@ifundefined {etoctocstyle}{\let \etoc@startlocaltoc \@gobble \let \etoc@settocdepth \@gobble \let \etoc@depthtag \@gobble \let \etoc@setlocaltop \@gobble }{}}
\providecommand\@newglossary[4]{}
\@newglossary{main}{glg}{gls}{glo}
\providecommand\@glsorder[1]{}
\providecommand\@istfilename[1]{}
\@istfilename{main.xdy}
\@glsorder{word}
\xpglanginauxtrue 
\selectlanguage *{english}
\@writefile{toc}{\selectlanguage *{english}}
\xpglanginauxfalse 
\newlabel{bhfn:0}{{}{i}{}{Doc-Start}{}}
\newlabel{bhfn:0@cref}{{}{[i][1][]i}}
\@writefile{toc}{\contentsline {chapter}{Preface}{v}{chapter*.1}\protected@file@percent }
\@writefile{toc}{\contentsline {chapter}{\nonumberline Contents}{vii}{chapter*.2}\protected@file@percent }
\HyPL@Entry{10<</S/D>>}
\@writefile{toc}{\contentsline {chapter}{\numberline {1}Introduction}{1}{chapter.1}\protected@file@percent }
\@writefile{lof}{\addvspace {10\p@ }}
\@writefile{lot}{\addvspace {10\p@ }}
\@writefile{loi}{\addvspace {10\p@ }}
\@writefile{lol}{\addvspace {10\p@ }}
\new@tpo@label{1}{1}
\@writefile{toc}{\etoc@startlocaltoc{2}}
\newmarginnote{note.11.1}{{11}{4624382sp}}
\@writefile{toc}{\etoc@startlocaltoc{3}}
\newlabel{ch:intro}{{1}{1}{Introduction}{etoc@tocid.3}{}}
\newlabel{ch:intro@cref}{{[chapter][1][]1}{[1][1][]1}}
\@writefile{toc}{\contentsline {section}{\numberline {1.1}The Main Ideas}{1}{section.1.1}\protected@file@percent }
\@writefile{toc}{\contentsline {mtocsection}{\numberline {1.1}The Main Ideas}{1}{section.1.1}\protected@file@percent }
\@writefile{toc}{\contentsline {section}{\numberline {1.2}What This Class Does}{1}{section.1.2}\protected@file@percent }
\@writefile{toc}{\contentsline {mtocsection}{\numberline {1.2}What This Class Does}{1}{section.1.2}\protected@file@percent }
\newlabel{sec:does}{{1.2}{1}{What This Class Does}{section.1.2}{}}
\newlabel{sec:does@cref}{{[section][2][1]1.2}{[1][1][]1}}
\newlabel{1@xvr}{{}{1}}
\newlabel{1@vr}{{}{1}}
\newmarginnote{note.11.2}{{12}{34533688sp}}
\newmarginnote{note.12.1}{{12}{23038600sp}}
\newmarginnote{note.12.2}{{12}{14581719sp}}
\@writefile{lof}{\setforeignlanguage {english}}
\@writefile{lot}{\setforeignlanguage {english}}
\@writefile{lof}{\contentsline {figure}{\numberline {1.1}{\ignorespaces The Mona Lisa}}{2}{figure.caption.5}\protected@file@percent }
\providecommand*\caption@xref[2]{\@setref\relax\@undefined{#1}}
\newlabel{fig:marginmonalisa}{{1.1}{2}{The Mona Lisa}{figure.caption.5}{}}
\newlabel{fig:marginmonalisa@cref}{{[figure][1][1]1.1}{[1][2][]2}}
\@writefile{toc}{\contentsline {section}{\numberline {1.3}What This Class Does Not Do}{2}{section.1.3}\protected@file@percent }
\@writefile{toc}{\contentsline {mtocsection}{\numberline {1.3}What This Class Does Not Do}{2}{section.1.3}\protected@file@percent }
\newlabel{sec:doesnot}{{1.3}{2}{What This Class Does Not Do}{section.1.3}{}}
\newlabel{sec:doesnot@cref}{{[section][3][1]1.3}{[1][2][]2}}
\newmarginnote{note.12.3}{{13}{13389332sp}}
\newlabel{2@xvr}{{}{3}}
\newlabel{2@vr}{{}{3}}
\newmarginnote{note.13.1}{{13}{4624382sp}}
\@writefile{toc}{\contentsline {section}{\numberline {1.4}How to Use This Class}{3}{section.1.4}\protected@file@percent }
\@writefile{toc}{\contentsline {mtocsection}{\numberline {1.4}How to Use This Class}{3}{section.1.4}\protected@file@percent }
\@writefile{toc}{\contentsline {part}{\nonumberline Class Options, Commands and Environments}{5}{part*.7}\protected@file@percent }
\@writefile{toc}{\contentsline {chapter}{\numberline {2}Class Options}{7}{chapter.2}\protected@file@percent }
\@writefile{lof}{\addvspace {10\p@ }}
\@writefile{lot}{\addvspace {10\p@ }}
\@writefile{loi}{\addvspace {10\p@ }}
\@writefile{lol}{\addvspace {10\p@ }}
\new@tpo@label{2}{7}
\@writefile{toc}{\etoc@startlocaltoc{4}}
\newmarginnote{note.17.1}{{17}{4624382sp}}
\@writefile{toc}{\etoc@startlocaltoc{5}}
\newlabel{ch:options}{{2}{7}{Class Options}{etoc@tocid.5}{}}
\newlabel{ch:options@cref}{{[chapter][2][]2}{[1][7][]7}}
\@writefile{toc}{\contentsline {section}{\numberline {2.1}\texttt  {KOMA} Options}{7}{section.2.1}\protected@file@percent }
\@writefile{toc}{\contentsline {mtocsection}{\numberline {2.1}\texttt  {KOMA} Options}{7}{section.2.1}\protected@file@percent }
\newmarginnote{note.17.2}{{17}{10279422sp}}
\@writefile{toc}{\contentsline {section}{\numberline {2.2}\texttt  {kao} Options}{7}{section.2.2}\protected@file@percent }
\@writefile{toc}{\contentsline {mtocsection}{\numberline {2.2}\texttt  {kao} Options}{7}{section.2.2}\protected@file@percent }
\zref@newlabel{mdf@pagelabel-1}{\default{3}\page{7}\abspage{17}\mdf@pagevalue{7}}
\oddpage@label{1}{7}
\pgfsyspdfmark {pgfid2}{4624382}{14693603}
\newlabel{3@xvr}{{}{7}}
\newlabel{3@vr}{{}{7}}
\@writefile{toc}{\contentsline {section}{\numberline {2.3}Other Things Worth Knowing}{7}{section.2.3}\protected@file@percent }
\@writefile{toc}{\contentsline {mtocsection}{\numberline {2.3}Other Things Worth Knowing}{7}{section.2.3}\protected@file@percent }
\@writefile{toc}{\contentsline {section}{\numberline {2.4}Document Structure}{8}{section.2.4}\protected@file@percent }
\@writefile{toc}{\contentsline {mtocsection}{\numberline {2.4}Document Structure}{8}{section.2.4}\protected@file@percent }
\newmarginnote{note.18.1}{{18}{16763477sp}}
\newlabel{4@xvr}{{}{8}}
\newlabel{4@vr}{{}{8}}
\newmarginnote{note.18.2}{{18}{28465356sp}}
\@writefile{toc}{\contentsline {chapter}{\numberline {3}Margin Stuff}{9}{chapter.3}\protected@file@percent }
\@writefile{lof}{\addvspace {10\p@ }}
\@writefile{lot}{\addvspace {10\p@ }}
\@writefile{loi}{\addvspace {10\p@ }}
\@writefile{lol}{\addvspace {10\p@ }}
\new@tpo@label{3}{9}
\@writefile{toc}{\etoc@startlocaltoc{6}}
\newmarginnote{note.19.1}{{19}{4624382sp}}
\@writefile{toc}{\etoc@startlocaltoc{7}}
\@writefile{toc}{\contentsline {section}{\numberline {3.1}Sidenotes}{9}{section.3.1}\protected@file@percent }
\@writefile{toc}{\contentsline {mtocsection}{\numberline {3.1}Sidenotes}{9}{section.3.1}\protected@file@percent }
\@writefile{toc}{\contentsline {section}{\numberline {3.2}Marginnotes}{9}{section.3.2}\protected@file@percent }
\@writefile{toc}{\contentsline {mtocsection}{\numberline {3.2}Marginnotes}{9}{section.3.2}\protected@file@percent }
\newmarginnote{note.19.2}{{19}{22238968sp}}
\zref@newlabel{mdf@pagelabel-2}{\default{3.2}\page{9}\abspage{19}\mdf@pagevalue{9}}
\oddpage@label{2}{9}
\pgfsyspdfmark {pgfid4}{4624382}{10112498}
\@writefile{toc}{\contentsline {section}{\numberline {3.3}Footnotes}{10}{section.3.3}\protected@file@percent }
\@writefile{toc}{\contentsline {mtocsection}{\numberline {3.3}Footnotes}{10}{section.3.3}\protected@file@percent }
\newlabel{bhfn:1}{{1}{10}{Footnotes}{BackrefHyperFootnoteCounter.1}{}}
\newlabel{bhfn:1@cref}{{[BackrefHyperFootnoteCounter][1][]1}{[1][10][]10}}
\@writefile{toc}{\contentsline {section}{\numberline {3.4}Margintoc}{10}{section.3.4}\protected@file@percent }
\@writefile{toc}{\contentsline {mtocsection}{\numberline {3.4}Margintoc}{10}{section.3.4}\protected@file@percent }
\@writefile{toc}{\contentsline {section}{\numberline {3.5}Marginlisting}{11}{section.3.5}\protected@file@percent }
\@writefile{toc}{\contentsline {mtocsection}{\numberline {3.5}Marginlisting}{11}{section.3.5}\protected@file@percent }
\newmarginnote{note.21.2}{{21}{4624382sp}}
\@writefile{lof}{\setforeignlanguage {english}}
\@writefile{lot}{\setforeignlanguage {english}}
\@writefile{lol}{\contentsline {lstlisting}{\numberline {3.1}{\ignorespaces An example of a margin listing.\relax }}{11}{lstlisting.caption.8}\protected@file@percent }
\newmarginnote{note.21.1}{{21}{25732445sp}}
\@writefile{toc}{\contentsline {chapter}{\numberline {4}Figures and Tables}{13}{chapter.4}\protected@file@percent }
\@writefile{lof}{\addvspace {10\p@ }}
\@writefile{lot}{\addvspace {10\p@ }}
\@writefile{loi}{\addvspace {10\p@ }}
\@writefile{lol}{\addvspace {10\p@ }}
\oddpage@label{3}{13}
\pgfsyspdfmark {pgfid5}{4624382}{35631047}
\@writefile{toc}{\etoc@startlocaltoc{8}}
\newmarginnote{note.23.1}{{23}{4624382sp}}
\@writefile{toc}{\etoc@startlocaltoc{9}}
\@writefile{toc}{\contentsline {section}{\numberline {4.1}Normal Figures and Tables}{13}{section.4.1}\protected@file@percent }
\@writefile{toc}{\contentsline {mtocsection}{\numberline {4.1}Normal Figures and Tables}{13}{section.4.1}\protected@file@percent }
\@writefile{lol}{\contentsline {lstlisting}{\numberline {4.1}{\ignorespaces Caption of a listing.}}{13}{lstlisting.4.1}\protected@file@percent }
\newmarginnote{note.23.2}{{23}{4624382sp}}
\newlabel{5@xvr}{{}{14}}
\newlabel{5@vr}{{}{14}}
\@writefile{lof}{\setforeignlanguage {english}}
\@writefile{lot}{\setforeignlanguage {english}}
\@writefile{lot}{\contentsline {table}{\numberline {4.1}{\ignorespaces A useless table}}{14}{table.caption.10}\protected@file@percent }
\newlabel{tab:useless}{{4.1}{14}{A useless table}{table.caption.10}{}}
\newlabel{tab:useless@cref}{{[table][1][4]4.1}{[1][14][]14}}
\gdef\@@FBset@i{\global\c@FBcnt14}
\@writefile{lof}{\setforeignlanguage {english}}
\@writefile{lot}{\setforeignlanguage {english}}
\@writefile{lof}{\contentsline {figure}{\numberline {4.1}{\ignorespaces Mona Lisa, again}}{15}{figure.caption.9}\protected@file@percent }
\newlabel{fig:normalmonalisa}{{4.1}{15}{Mona Lisa, again}{figure.caption.9}{}}
\newlabel{fig:normalmonalisa@cref}{{[figure][1][4]4.1}{[1][13][]15}}
\gdef\@@FBset@{\global\c@FBcnt15}
\@writefile{lof}{\setforeignlanguage {english}}
\@writefile{lot}{\setforeignlanguage {english}}
\@writefile{lot}{\contentsline {table}{\numberline {4.2}{\ignorespaces Another useless table}}{16}{table.caption.11}\protected@file@percent }
\newlabel{tab:anotheruseless}{{4.2}{16}{Another useless table}{table.caption.11}{}}
\newlabel{tab:anotheruseless@cref}{{[table][2][4]4.2}{[1][16][]16}}
\oddpage@label{5}{16}
\pgfsyspdfmark {pgfid7}{8962003}{28085032}
\oddpage@label{6}{16}
\pgfsyspdfmark {pgfid8}{13392856}{27865225}
\@writefile{toc}{\contentsline {section}{\numberline {4.2}Margin Figures and Tables}{16}{section.4.2}\protected@file@percent }
\@writefile{toc}{\contentsline {mtocsection}{\numberline {4.2}Margin Figures and Tables}{16}{section.4.2}\protected@file@percent }
\@writefile{lol}{\contentsline {lstlisting}{\numberline {4.2}{\ignorespaces Another caption.}}{16}{lstlisting.4.2}\protected@file@percent }
\newmarginnote{note.26.1}{{26}{14581719sp}}
\@writefile{tdo}{\contentsline {todo}{Improve this part.}{16}{section*.12}\protected@file@percent }
\oddpage@label{4}{16}
\pgfsyspdfmark {pgfid6}{28386474}{28326916}
\@writefile{toc}{\contentsline {section}{\numberline {4.3}Wide Figures and Tables}{16}{section.4.3}\protected@file@percent }
\@writefile{toc}{\contentsline {mtocsection}{\numberline {4.3}Wide Figures and Tables}{16}{section.4.3}\protected@file@percent }
\@writefile{lof}{\setforeignlanguage {english}}
\@writefile{lot}{\setforeignlanguage {english}}
\@writefile{lof}{\contentsline {figure}{\numberline {4.2}{\ignorespaces A wide seaside}}{16}{figure.caption.13}\protected@file@percent }
\gdef\@@FBset@ii{\global\c@FBcnt16}
\gdef \LT@i {\LT@entry 
    {1}{29.98628pt}\LT@entry 
    {1}{40.80782pt}\LT@entry 
    {1}{41.20781pt}}
\@writefile{lof}{\setforeignlanguage {english}}
\@writefile{lot}{\setforeignlanguage {english}}
\@writefile{lot}{\contentsline {table}{\numberline {4.3}{\ignorespaces A wide table with invented data about three people living in the UK. Note that wide figures and tables are centered and their caption also extends into the margin.\relax }}{17}{table.caption.14}\protected@file@percent }
\gdef\@@FBset@iii{\global\c@FBcnt17}
\@writefile{lol}{\contentsline {lstlisting}{\numberline {4.3}{\ignorespaces How to typeset a wide table}}{17}{lstlisting.4.3}\protected@file@percent }
\newmarginnote{note.27.1}{{27}{4624382sp}}
\newlabel{6@xvr}{{}{17}}
\newlabel{6@vr}{{}{17}}
\@writefile{lol}{\contentsline {lstlisting}{\numberline {4.4}{\ignorespaces Example of a longtable}}{17}{lstlisting.4.4}\protected@file@percent }
\newmarginnote{note.27.2}{{27}{4624382sp}}
\gdef \FBLTpage@i {\gdef\flrow@LTlastpage{2}}
\@writefile{lot}{\contentsline {table}{\numberline {4.4}{\ignorespaces Caption of the longtable.\relax }}{18}{table.4.4}\protected@file@percent }
\@writefile{lol}{\contentsline {lstlisting}{\numberline {4.5}{\ignorespaces Increasing the width of the caption of a \texttt  {longtable}.}}{18}{lstlisting.4.5}\protected@file@percent }
\newmarginnote{note.28.1}{{28}{14581719sp}}
\abx@aux@cite{0}{Visscher2008}
\abx@aux@segm{0}{0}{Visscher2008}
\abx@aux@cite{0}{James2013}
\abx@aux@segm{0}{0}{James2013}
\abx@aux@cite{0}{Visscher2008}
\abx@aux@segm{0}{0}{Visscher2008}
\abx@aux@cite{0}{James2013}
\abx@aux@segm{0}{0}{James2013}
\abx@aux@cite{0}{James2013}
\abx@aux@segm{0}{0}{James2013}
\abx@aux@cite{0}{James2013}
\abx@aux@segm{0}{0}{James2013}
\abx@aux@cite{0}{Battle2014}
\abx@aux@segm{0}{0}{Battle2014}
\abx@aux@cite{0}{Battle2014}
\abx@aux@segm{0}{0}{Battle2014}
\abx@aux@cite{0}{Zou2005}
\abx@aux@segm{0}{0}{Zou2005}
\abx@aux@cite{0}{Zou2005}
\abx@aux@segm{0}{0}{Zou2005}
\@writefile{toc}{\contentsline {chapter}{\numberline {5}References}{19}{chapter.5}\protected@file@percent }
\@writefile{lof}{\addvspace {10\p@ }}
\@writefile{lot}{\addvspace {10\p@ }}
\@writefile{loi}{\addvspace {10\p@ }}
\@writefile{lol}{\addvspace {10\p@ }}
\new@tpo@label{4}{19}
\newlabel{ch:references}{{5}{19}{References}{chapter.5}{}}
\newlabel{ch:references@cref}{{[chapter][5][]5}{[1][19][]19}}
\@writefile{toc}{\contentsline {section}{\numberline {5.1}Citations}{19}{section.5.1}\protected@file@percent }
\@writefile{toc}{\contentsline {mtocsection}{\numberline {5.1}Citations}{19}{section.5.1}\protected@file@percent }
\newmarginnote{note.29.1}{{29}{8146548sp}}
\@writefile{toc}{\contentsline {section}{\numberline {5.2}Glossaries and Indices}{20}{section.5.2}\protected@file@percent }
\@writefile{toc}{\contentsline {mtocsection}{\numberline {5.2}Glossaries and Indices}{20}{section.5.2}\protected@file@percent }
\newmarginnote{note.30.1}{{30}{14581719sp}}
\newmarginnote{note.31.1}{{31}{4624382sp}}
\@writefile{toc}{\contentsline {section}{\numberline {5.3}Hyperreferences}{21}{section.5.3}\protected@file@percent }
\@writefile{toc}{\contentsline {mtocsection}{\numberline {5.3}Hyperreferences}{21}{section.5.3}\protected@file@percent }
\newlabel{sec:hyprefs}{{5.3}{21}{Hyperreferences}{section.5.3}{}}
\newlabel{sec:hyprefs@cref}{{[section][3][5]5.3}{[1][21][]21}}
\newlabel{7@xvr}{{}{21}}
\newlabel{7@vr}{{}{21}}
\newlabel{8@xvr}{{}{21}}
\newlabel{8@vr}{{}{21}}
\@writefile{toc}{\contentsline {section}{\numberline {5.4}A Final Note on Compilation}{22}{section.5.4}\protected@file@percent }
\@writefile{toc}{\contentsline {mtocsection}{\numberline {5.4}A Final Note on Compilation}{22}{section.5.4}\protected@file@percent }
\newlabel{sec:compiling}{{5.4}{22}{A Final Note on Compilation}{section.5.4}{}}
\newlabel{sec:compiling@cref}{{[section][4][5]5.4}{[1][22][]22}}
\@writefile{toc}{\contentsline {part}{\nonumberline Design and Additional Features}{25}{part*.16}\protected@file@percent }
\@writefile{toc}{\contentsline {chapter}{\numberline {6}Page Design}{27}{chapter.6}\protected@file@percent }
\@writefile{lof}{\addvspace {10\p@ }}
\@writefile{lot}{\addvspace {10\p@ }}
\@writefile{loi}{\addvspace {10\p@ }}
\@writefile{lol}{\addvspace {10\p@ }}
\oddpage@label{9}{27}
\pgfsyspdfmark {pgfid11}{4624382}{38428067}
\@writefile{toc}{\etoc@startlocaltoc{10}}
\newmarginnote{note.37.1}{{37}{4624382sp}}
\@writefile{toc}{\etoc@startlocaltoc{11}}
\newlabel{ch:layout}{{6}{27}{Page Design}{etoc@tocid.11}{}}
\newlabel{ch:layout@cref}{{[chapter][6][]6}{[1][27][]27}}
\@writefile{toc}{\contentsline {section}{\numberline {6.1}Headings}{27}{section.6.1}\protected@file@percent }
\@writefile{toc}{\contentsline {mtocsection}{\numberline {6.1}Headings}{27}{section.6.1}\protected@file@percent }
\@writefile{toc}{\contentsline {section}{\numberline {6.2}Headers \& Footers}{28}{section.6.2}\protected@file@percent }
\@writefile{toc}{\contentsline {mtocsection}{\numberline {6.2}Headers \& Footers}{28}{section.6.2}\protected@file@percent }
\zref@newlabel{mdf@pagelabel-3}{\default{6.2}\page{28}\abspage{38}\mdf@pagevalue{28}}
\oddpage@label{10}{28}
\pgfsyspdfmark {pgfid13}{14581719}{27043391}
\@writefile{toc}{\contentsline {section}{\numberline {6.3}Table of Contents}{28}{section.6.3}\protected@file@percent }
\@writefile{toc}{\contentsline {mtocsection}{\numberline {6.3}Table of Contents}{28}{section.6.3}\protected@file@percent }
\@writefile{lof}{\setforeignlanguage {english}}
\@writefile{lot}{\setforeignlanguage {english}}
\@writefile{lot}{\contentsline {table}{\numberline {6.1}{\ignorespaces Commands to add a particular entry to the table of contents.\relax }}{28}{table.caption.17}\protected@file@percent }
\newlabel{tab:tocentries}{{6.1}{28}{Commands to add a particular entry to the table of contents.\relax }{table.caption.17}{}}
\newlabel{tab:tocentries@cref}{{[table][1][6]6.1}{[1][28][]28}}
\gdef\@@FBset@iv{\global\c@FBcnt28}
\newmarginnote{note.39.1}{{39}{21667099sp}}
\@writefile{toc}{\contentsline {section}{\numberline {6.4}Paper Size}{29}{section.6.4}\protected@file@percent }
\@writefile{toc}{\contentsline {mtocsection}{\numberline {6.4}Paper Size}{29}{section.6.4}\protected@file@percent }
\newmarginnote{note.39.2}{{39}{4624382sp}}
\@writefile{lof}{\setforeignlanguage {english}}
\@writefile{lot}{\setforeignlanguage {english}}
\@writefile{lot}{\contentsline {table}{\numberline {6.2}{\ignorespaces Some non-standard paper sizes supported by kaobook.\relax }}{29}{table.caption.18}\protected@file@percent }
\newlabel{tab:papersizes}{{6.2}{29}{Some non-standard paper sizes supported by kaobook.\relax }{table.caption.18}{}}
\newlabel{tab:papersizes@cref}{{[table][2][6]6.2}{[1][29][]29}}
\@writefile{toc}{\contentsline {section}{\numberline {6.5}Page Layout}{29}{section.6.5}\protected@file@percent }
\@writefile{toc}{\contentsline {mtocsection}{\numberline {6.5}Page Layout}{29}{section.6.5}\protected@file@percent }
\@writefile{toc}{\contentsline {section}{\numberline {6.6}Numbers \& Counters}{30}{section.6.6}\protected@file@percent }
\@writefile{toc}{\contentsline {mtocsection}{\numberline {6.6}Numbers \& Counters}{30}{section.6.6}\protected@file@percent }
\@writefile{toc}{\contentsline {section}{\numberline {6.7}White Space}{30}{section.6.7}\protected@file@percent }
\@writefile{toc}{\contentsline {mtocsection}{\numberline {6.7}White Space}{30}{section.6.7}\protected@file@percent }
\abx@aux@cite{0}{James2013}
\abx@aux@segm{0}{0}{James2013}
\@writefile{toc}{\contentsline {chapter}{\numberline {7}Mathematics and Boxes}{33}{chapter.7}\protected@file@percent }
\@writefile{lof}{\addvspace {10\p@ }}
\@writefile{lot}{\addvspace {10\p@ }}
\@writefile{loi}{\addvspace {10\p@ }}
\@writefile{lol}{\addvspace {10\p@ }}
\new@tpo@label{5}{33}
\@writefile{toc}{\etoc@startlocaltoc{12}}
\newmarginnote{note.43.1}{{43}{4624382sp}}
\@writefile{toc}{\etoc@startlocaltoc{13}}
\newmarginnote{note.43.2}{{43}{28577213sp}}
\newlabel{ch:mathematics}{{7}{33}{Mathematics and Boxes}{sidenote.7.1}{}}
\newlabel{ch:mathematics@cref}{{[chapter][7][]7}{[1][33][]33}}
\@writefile{toc}{\contentsline {section}{\numberline {7.1}Theorems}{33}{section.7.1}\protected@file@percent }
\@writefile{toc}{\contentsline {mtocsection}{\numberline {7.1}Theorems}{33}{section.7.1}\protected@file@percent }
\zref@newlabel{mdf@pagelabel-4}{\default{2}\page{33}\abspage{43}\mdf@pagevalue{33}}
\oddpage@label{11}{33}
\@writefile{loe}{\addvspace {10\p@ }}
\@writefile{loe}{\contentsline {definition}{\ifthmt@listswap Definition\nobreakspace  {}7.1.1\else \numberline {7.1.1}Definition\fi }{33}{definition.7.1.1}\protected@file@percent }
\newlabel{def:openset}{{7.1.1}{33}{}{definition.7.1.1}{}}
\newlabel{def:openset@cref}{{[definition][1][7,1]7.1.1}{[1][33][]33}}
\pgfsyspdfmark {pgfid14}{4624382}{34245744}
\zref@newlabel{mdf@pagelabel-5}{\default{2}\page{33}\abspage{43}\mdf@pagevalue{33}}
\oddpage@label{12}{33}
\@writefile{loe}{\contentsline {theorem}{\ifthmt@listswap Theorem\nobreakspace  {}7.1.1\else \numberline {7.1.1}Theorem\fi }{33}{theorem.7.1.1}\protected@file@percent }
\pgfsyspdfmark {pgfid15}{4624382}{27217920}
\zref@newlabel{mdf@pagelabel-6}{\default{2}\page{33}\abspage{43}\mdf@pagevalue{33}}
\oddpage@label{13}{33}
\@writefile{loe}{\contentsline {proposition}{\ifthmt@listswap Proposition\nobreakspace  {}7.1.2\else \numberline {7.1.2}Proposition\fi }{33}{proposition.7.1.2}\protected@file@percent }
\pgfsyspdfmark {pgfid16}{4624382}{23382851}
\zref@newlabel{mdf@pagelabel-7}{\default{2}\page{33}\abspage{43}\mdf@pagevalue{33}}
\oddpage@label{14}{33}
\@writefile{loe}{\contentsline {lemma}{\ifthmt@listswap Lemma\nobreakspace  {}7.1.3\else \numberline {7.1.3}Lemma\fi }{33}{lemma.7.1.3}\protected@file@percent }
\newlabel{bhfn:2}{{2}{33}{}{BackrefHyperFootnoteCounter.2}{}}
\newlabel{bhfn:2@cref}{{[BackrefHyperFootnoteCounter][2][]2}{[1][33][]33}}
\pgfsyspdfmark {pgfid17}{4624382}{18332764}
\zref@newlabel{mdf@pagelabel-8}{\default{2}\page{33}\abspage{43}\mdf@pagevalue{33}}
\oddpage@label{15}{33}
\@writefile{loe}{\contentsline {corollary}{\ifthmt@listswap Corollary\nobreakspace  {}7.1.4\else \numberline {7.1.4}Corollary\fi \thmtformatoptarg {Finite Intersection, Countable Union}}{33}{corollary.7.1.4}\protected@file@percent }
\pgfsyspdfmark {pgfid18}{4624382}{9643092}
\zref@newlabel{mdf@pagelabel-9}{\default{2}\page{34}\abspage{44}\mdf@pagevalue{34}}
\oddpage@label{16}{34}
\@writefile{loe}{\contentsline {definition}{\ifthmt@listswap Definition\nobreakspace  {}7.1.2\else \numberline {7.1.2}Definition\fi }{34}{definition.7.1.2}\protected@file@percent }
\pgfsyspdfmark {pgfid19}{14581719}{40883806}
\zref@newlabel{mdf@pagelabel-10}{\default{2}\page{34}\abspage{44}\mdf@pagevalue{34}}
\oddpage@label{17}{34}
\@writefile{loe}{\contentsline {example}{\ifthmt@listswap Example\nobreakspace  {}7.1.1\else \numberline {7.1.1}Example\fi }{34}{example.7.1.1}\protected@file@percent }
\pgfsyspdfmark {pgfid20}{14581719}{37052876}
\zref@newlabel{mdf@pagelabel-11}{\default{2}\page{34}\abspage{44}\mdf@pagevalue{34}}
\oddpage@label{18}{34}
\@writefile{loe}{\contentsline {remark}{\ifthmt@listswap Remark\nobreakspace  {}7.1.1\else \numberline {7.1.1}Remark\fi }{34}{remark.7.1.1}\protected@file@percent }
\pgfsyspdfmark {pgfid21}{14581719}{33221946}
\zref@newlabel{mdf@pagelabel-12}{\default{2}\page{34}\abspage{44}\mdf@pagevalue{34}}
\oddpage@label{19}{34}
\@writefile{loe}{\contentsline {remark}{\ifthmt@listswap Remark\nobreakspace  {}7.1.2\else \numberline {7.1.2}Remark\fi }{34}{remark.7.1.2}\protected@file@percent }
\pgfsyspdfmark {pgfid22}{14581719}{24529815}
\zref@newlabel{mdf@pagelabel-13}{\default{2}\page{34}\abspage{44}\mdf@pagevalue{34}}
\oddpage@label{20}{34}
\@writefile{loe}{\contentsline {exercise}{\ifthmt@listswap Exercise\nobreakspace  {}7.1.1\else \numberline {7.1.1}Exercise\fi }{34}{exercise.7.1.1}\protected@file@percent }
\pgfsyspdfmark {pgfid23}{14581719}{21131166}
\newmarginnote{note.44.1}{{44}{29851572sp}}
\@writefile{toc}{\contentsline {section}{\numberline {7.2}Boxes \& Environments}{34}{sidenote.7.4}\protected@file@percent }
\@writefile{toc}{\contentsline {mtocsection}{\numberline {7.2}Boxes \& Custom Environments \sidenote [][*1.8]{Notice that in the table of contents and in the header, the name of this section is \enquote {Boxes \& Environments}; we achieved this with the optional argument of the \texttt  {section} command.}}{34}{sidenote.7.4}\protected@file@percent }
\zref@newlabel{mdf@pagelabel-14}{\default{7.2}\page{35}\abspage{45}\mdf@pagevalue{35}}
\oddpage@label{21}{35}
\pgfsyspdfmark {pgfid25}{4624382}{37639955}
\zref@newlabel{mdf@pagelabel-15}{\default{7.2.1}\page{35}\abspage{45}\mdf@pagevalue{35}}
\oddpage@label{22}{35}
\pgfsyspdfmark {pgfid27}{4624382}{25121440}
\@writefile{toc}{\contentsline {section}{\numberline {7.3}Experiments}{35}{section.7.3}\protected@file@percent }
\@writefile{toc}{\contentsline {mtocsection}{\numberline {7.3}Experiments}{35}{section.7.3}\protected@file@percent }
\newmarginnote{note.45.1}{{45}{4624382sp}}
\zref@newlabel{mdf@pagelabel-16}{\default{7.3}\page{35}\abspage{45}\mdf@pagevalue{35}}
\oddpage@label{23}{35}
\pgfsyspdfmark {pgfid29}{25732445}{17272282}
\@writefile{toc}{\contentsline {part}{\nonumberline Appendix}{37}{part*.20}\protected@file@percent }
\newlabel{ch:appendix}{{7.3}{39}{Appendix}{part*.20}{}}
\newlabel{ch:appendix@cref}{{[section][3][7]7.3}{[1][39][]39}}
\@writefile{toc}{\contentsline {chapter}{\numberline {A}Heading on Level\xspace  0 (chapter)}{39}{appendix.A}\protected@file@percent }
\@writefile{lof}{\addvspace {10\p@ }}
\@writefile{lot}{\addvspace {10\p@ }}
\@writefile{loi}{\addvspace {10\p@ }}
\@writefile{lol}{\addvspace {10\p@ }}
\@writefile{toc}{\contentsline {section}{\numberline {A.1}Heading on Level\xspace  1 (section)}{39}{section.A.1}\protected@file@percent }
\@writefile{toc}{\contentsline {mtocsection}{\numberline {A.1}Heading on Level\xspace  1 (section)}{39}{section.A.1}\protected@file@percent }
\@writefile{toc}{\contentsline {subsection}{\numberline {A.1.1}Heading on Level\xspace  2 (subsection)}{39}{subsection.A.1.1}\protected@file@percent }
\@writefile{toc}{\contentsline {mtocsubsection}{\numberline {A.1.1}Heading on Level\xspace  2 (subsection)}{39}{subsection.A.1.1}\protected@file@percent }
\@writefile{toc}{\contentsline {subsubsection}{\nonumberline Heading on Level\xspace  3 (subsubsection)}{39}{subsubsection*.22}\protected@file@percent }
\@writefile{toc}{\contentsline {paragraph}{\nonumberline Heading on Level\xspace  4 (paragraph)}{40}{paragraph*.24}\protected@file@percent }
\@writefile{toc}{\contentsline {section}{\numberline {A.2}Lists}{40}{section.A.2}\protected@file@percent }
\@writefile{toc}{\contentsline {mtocsection}{\numberline {A.2}Lists}{40}{section.A.2}\protected@file@percent }
\@writefile{toc}{\contentsline {subsection}{\numberline {A.2.1}Example for list\xspace  (itemize)}{40}{subsection.A.2.1}\protected@file@percent }
\@writefile{toc}{\contentsline {mtocsubsection}{\numberline {A.2.1}Example for list\xspace  (itemize)}{40}{subsection.A.2.1}\protected@file@percent }
\@writefile{toc}{\contentsline {subsubsection}{\nonumberline Example for list\xspace  (4*itemize)}{40}{subsubsection*.26}\protected@file@percent }
\@writefile{toc}{\contentsline {subsection}{\numberline {A.2.2}Example for list\xspace  (enumerate)}{40}{subsection.A.2.2}\protected@file@percent }
\@writefile{toc}{\contentsline {mtocsubsection}{\numberline {A.2.2}Example for list\xspace  (enumerate)}{40}{subsection.A.2.2}\protected@file@percent }
\@writefile{toc}{\contentsline {subsubsection}{\nonumberline Example for list\xspace  (4*enumerate)}{41}{subsubsection*.28}\protected@file@percent }
\@writefile{toc}{\contentsline {subsection}{\numberline {A.2.3}Example for list\xspace  (description)}{41}{subsection.A.2.3}\protected@file@percent }
\@writefile{toc}{\contentsline {mtocsubsection}{\numberline {A.2.3}Example for list\xspace  (description)}{41}{subsection.A.2.3}\protected@file@percent }
\@writefile{toc}{\contentsline {subsubsection}{\nonumberline Example for list\xspace  (4*description)}{41}{subsubsection*.30}\protected@file@percent }
\@writefile{toc}{\contentsline {chapter}{\numberline {B}Fonts Testing}{43}{appendix.B}\protected@file@percent }
\@writefile{lof}{\addvspace {10\p@ }}
\@writefile{lot}{\addvspace {10\p@ }}
\@writefile{loi}{\addvspace {10\p@ }}
\@writefile{lol}{\addvspace {10\p@ }}
\@writefile{toc}{\contentsline {section}{\numberline {B.1}Font Sizes}{43}{section.B.1}\protected@file@percent }
\@writefile{toc}{\contentsline {mtocsection}{\numberline {B.1}Font Sizes}{43}{section.B.1}\protected@file@percent }
\@writefile{toc}{\contentsline {section}{\numberline {B.2}Font Families}{43}{section.B.2}\protected@file@percent }
\@writefile{toc}{\contentsline {mtocsection}{\numberline {B.2}Font Families}{43}{section.B.2}\protected@file@percent }
\providecommand\@xdylanguage[2]{}
\@xdylanguage{main}{english}
\providecommand\@gls@codepage[2]{}
\@gls@codepage{main}{utf8}
\@writefile{toc}{\contentsline {chapter}{Alphabetical Index}{47}{section*.31}\protected@file@percent }
\global\csname @altsecnumformattrue\endcsname
\abx@aux@read@bbl@mdfivesum{D41D8CD98F00B204E9800998ECF8427E}
\abx@aux@read@bblrerun
\global\@namedef{scr@dte@chapter@lastmaxnumwidth}{11.42944pt}
\global\@namedef{scr@dte@section@lastmaxnumwidth}{18.51181pt}
\global\@namedef{scr@dte@subsection@lastmaxnumwidth}{25.63576pt}
\global\@namedef{scr@dte@table@lastmaxnumwidth}{16.11983pt}
\global\@namedef{scr@dte@figure@lastmaxnumwidth}{16.11983pt}
\@writefile{lof}{\providecommand\tocbasic@end@toc@file{}\tocbasic@end@toc@file}
\@writefile{lot}{\providecommand\tocbasic@end@toc@file{}\tocbasic@end@toc@file}
\gdef \@abspage@last{57}
