\addvspace {10\p@ }
\setforeignlanguage {english}
\contentsline {figure}{\numberline {1.1}{\ignorespaces The Mona Lisa}}{2}{figure.caption.5}%
\addvspace {10\p@ }
\addvspace {10\p@ }
\setforeignlanguage {english}
\addvspace {10\p@ }
\setforeignlanguage {english}
\setforeignlanguage {english}
\contentsline {figure}{\numberline {4.1}{\ignorespaces Mona Lisa, again}}{15}{figure.caption.9}%
\setforeignlanguage {english}
\setforeignlanguage {english}
\contentsline {figure}{\numberline {4.2}{\ignorespaces A wide seaside}}{16}{figure.caption.13}%
\setforeignlanguage {english}
\addvspace {10\p@ }
\addvspace {10\p@ }
\setforeignlanguage {english}
\setforeignlanguage {english}
\addvspace {10\p@ }
\addvspace {10\p@ }
\addvspace {10\p@ }
\providecommand \tocbasic@end@toc@file {}\tocbasic@end@toc@file
